<?xml version="1.0" encoding="utf-8"?>
<!-- Generator: Adobe Illustrator 22.1.0, SVG Export Plug-In . SVG Version: 6.00 Build 0)  -->
<svg version="1.1" id="Слой_1" xmlns="http://www.w3.org/2000/svg" xmlns:xlink="http://www.w3.org/1999/xlink" x="0px" y="0px"
	 viewBox="0 0 141.7 108" style="enable-background:new 0 0 141.7 108;" xml:space="preserve">
<style type="text/css">
	.st0{fill:#F5CB08;}
	.st1{fill:#20272C;}
</style>
<rect class="st0" width="56.7" height="56.7"/>
<path class="st1" d="M101.4,44l-17.9-5l1.8-16.4L56.7,9.8l-17.1,16l0.7,4.7L29,27.3l-9.1,8.5L24.6,67h29.8c0.3,1.1,1.3,1.8,2.4,1.7
	c1.1,0.1,2.2-0.6,2.5-1.7h39.4L101.4,44z M40.5,32.1l3.7,24.6h5V32.8l-7.3-2l-0.7-4.6l14.8-13.8v51.3c-0.8,0.2-1.4,0.8-1.7,1.6H30
	V29.2L40.5,32.1z M42.2,32.5l5.4,1.5v21.2h-2.1L42.2,32.5z M21.6,36.4l6.9-6.4v35.4h-2.5L21.6,36.4z M59.3,65.4
	c-0.2-0.8-0.9-1.4-1.7-1.6V11.9l26,11.7l-1.7,15l-4.5-1.3v12h4.9l1-8.8l16.3,4.6l-2.3,20.3L59.3,65.4z M81.8,40.2L81,47.8h-1.9v-8.4
	L81.8,40.2z"/>
<path class="st1" d="M0.1,82.1c0-1.9,0-3.6-0.1-5h3.7L4,79.6h0.1c1.1-1.9,3.2-3,5.4-2.9c2.9,0,6,1.9,6,7.2v10h-4.3v-9.5
	c0-2.4-0.9-4.3-3.2-4.3c-1.5,0-2.9,1-3.3,2.5c-0.1,0.5-0.2,0.9-0.2,1.4v9.9H0.1V82.1z"/>
<path class="st1" d="M29.4,93.9L29.1,92H29c-1.2,1.5-3.1,2.3-5,2.3c-2.8,0.2-5.1-1.9-5.3-4.7c0-0.1,0-0.2,0-0.3
	c0-4.3,3.8-6.4,10-6.4v-0.3c0-1.1-0.5-2.9-3.4-2.9c-1.6,0-3.2,0.4-4.5,1.2L20,78.1c1.9-1,4-1.5,6.1-1.5c5.4,0,7,3.4,7,7.1v6.1
	c0,1.3,0.1,2.7,0.2,4L29.4,93.9z M28.9,85.7c-3-0.1-5.9,0.6-5.9,3.2c-0.1,1.2,0.8,2.3,2,2.4c0.1,0,0.3,0,0.4,0
	c1.5,0,2.8-0.9,3.3-2.3c0.1-0.3,0.1-0.6,0.1-0.9V85.7z"/>
<path class="st1" d="M39.9,77l2.7,8.6c0.5,1.5,0.8,2.8,1.1,4.2h0.1c0.3-1.4,0.7-2.7,1.1-4.2l2.7-8.6h4.5l-6.4,16.9h-4.2L35.3,77
	H39.9z"/>
<rect x="54.8" y="77" class="st1" width="4.3" height="16.9"/>
<path class="st1" d="M79,77c-0.1,1.1-0.1,2.5-0.1,4.8v9.6c0,3.5-0.7,6-2.5,7.7c-1.9,1.4-4.2,2.1-6.5,2c-2,0.1-4-0.4-5.9-1.3l0.9-3.2
	c1.5,0.8,3.2,1.3,4.9,1.3c2.8,0,4.8-1.4,4.8-5.1v-1.4h-0.1c-1.1,1.6-3,2.6-4.9,2.5c-4.2,0-7.2-3.5-7.2-8.2c0-5.5,3.6-8.9,7.7-8.9
	c2-0.1,3.9,0.9,4.9,2.6h0.1l0.2-2.3H79z M74.6,83.8c0-0.4,0-0.8-0.1-1.2c-0.4-1.6-1.8-2.7-3.5-2.7c-2.4,0-4.2,2.1-4.2,5.5
	c0,2.9,1.4,5.2,4.1,5.2c1.6,0,3-1.1,3.5-2.6c0.1-0.5,0.2-1,0.2-1.5L74.6,83.8z"/>
<path class="st1" d="M92.9,93.9L92.7,92h-0.1c-1.2,1.5-3.1,2.3-5,2.3c-2.8,0.2-5.1-1.9-5.3-4.7c0-0.1,0-0.2,0-0.3
	c0-4.3,3.8-6.4,10-6.4v-0.3c0-1.1-0.4-2.9-3.4-2.9c-1.6,0-3.2,0.4-4.5,1.2l-0.8-2.8c1.9-1,4-1.5,6.1-1.5c5.4,0,7,3.4,7,7.1v6.1
	c0,1.3,0.1,2.7,0.2,4L92.9,93.9z M92.4,85.7c-3-0.1-5.9,0.6-5.9,3.2c-0.1,1.2,0.8,2.3,2,2.4c0.1,0,0.3,0,0.4,0
	c1.5,0,2.8-0.9,3.3-2.3c0.1-0.3,0.1-0.6,0.1-0.9V85.7z"/>
<path class="st1" d="M105.7,72.2V77h4v3.2h-4v7.4c0,2,0.6,3.1,2.2,3.1c0.6,0,1.1-0.1,1.7-0.2l0.1,3.3c-1,0.3-2,0.5-3.1,0.4
	c-1.4,0.1-2.7-0.4-3.7-1.4c-0.9-1-1.3-2.5-1.3-4.7v-7.9h-2.4V77h2.4v-3.8L105.7,72.2z"/>
<path class="st1" d="M128.8,85.3c0,6.2-4.4,9-8.7,9c-4.8,0-8.4-3.3-8.4-8.7s3.6-8.9,8.7-8.9S128.8,80.2,128.8,85.3z M116.1,85.5
	c0,3.3,1.6,5.7,4.2,5.7c2.4,0,4.1-2.4,4.1-5.8c0-2.6-1.2-5.6-4.1-5.6S116.1,82.7,116.1,85.5z"/>
<path class="st1" d="M132.3,82.5c0-2.3,0-3.9-0.1-5.4h3.7l0.1,3.2h0.1c0.6-2.1,2.5-3.5,4.6-3.6c0.3,0,0.7,0,1,0.1v4
	c-0.4-0.1-0.8-0.1-1.2-0.1c-1.9,0-3.5,1.3-3.8,3.2c-0.1,0.4-0.1,0.9-0.1,1.3v8.7h-4.3L132.3,82.5z"/>
<path class="st1" d="M3.6,105.4l-0.1-0.7l0,0c-0.4,0.5-1.1,0.9-1.7,0.8c-0.9,0.1-1.7-0.6-1.8-1.5c0,0,0-0.1,0-0.1
	c0-1.4,1.2-2.1,3.4-2.1v-0.1c0.1-0.6-0.4-1.2-1-1.3c-0.1,0-0.2,0-0.3,0c-0.5,0-1,0.1-1.5,0.4l-0.2-0.7c0.6-0.3,1.2-0.5,1.9-0.5
	c1.7,0,2.2,1.2,2.2,2.3v2.1c0,0.5,0,0.9,0.1,1.3L3.6,105.4z M3.4,102.6c-1.1,0-2.4,0.2-2.4,1.3c-0.1,0.5,0.3,0.9,0.8,1
	c0.1,0,0.1,0,0.2,0c0.6,0,1.2-0.4,1.4-0.9c0-0.1,0-0.2,0-0.3L3.4,102.6z"/>
<path class="st1" d="M6.1,101.6c0-0.7,0-1.3,0-1.8H7v1l0,0c0.4-0.7,1.2-1.1,2-1.1c1.4,0,2.4,1.2,2.4,2.9c0,2-1.2,3-2.6,3
	c-0.7,0-1.4-0.3-1.7-0.9l0,0v3.1h-1L6.1,101.6z M7.1,103.2c0,0.1,0,0.3,0,0.4c0.2,0.7,0.8,1.2,1.6,1.2c1.1,0,1.7-0.9,1.7-2.2
	c0-1.1-0.6-2.1-1.7-2.1c-0.7,0-1.4,0.5-1.6,1.3c0,0.1-0.1,0.3-0.1,0.4L7.1,103.2z"/>
<path class="st1" d="M15.9,105.4l-0.1-0.7l0,0c-0.4,0.5-1.1,0.9-1.7,0.8c-0.9,0.1-1.7-0.6-1.8-1.5c0,0,0-0.1,0-0.1
	c0-1.4,1.2-2.1,3.4-2.1v-0.1c0.1-0.6-0.4-1.2-1-1.3c-0.1,0-0.2,0-0.3,0c-0.5,0-1,0.1-1.5,0.4l-0.2-0.7c0.6-0.3,1.2-0.5,1.9-0.5
	c1.7,0,2.1,1.2,2.1,2.3v2.1c0,0.5,0,0.9,0.1,1.3L15.9,105.4z M15.7,102.6c-1.1,0-2.4,0.2-2.4,1.3c-0.1,0.5,0.3,0.9,0.8,1
	c0.1,0,0.1,0,0.2,0c0.6,0,1.2-0.4,1.4-0.9c0-0.1,0.1-0.2,0.1-0.3L15.7,102.6z"/>
<path class="st1" d="M18.4,101.6c0-0.7,0-1.2,0-1.8h0.9v1.1h0c0.2-0.7,0.8-1.2,1.6-1.2c0.1,0,0.2,0,0.3,0v1c-0.1,0-0.2,0-0.4,0
	c-0.7,0-1.3,0.6-1.4,1.3c0,0.2,0,0.3,0,0.5v3h-1L18.4,101.6z"/>
<path class="st1" d="M23.7,98.2v1.6h1.5v0.8h-1.5v3c0,0.7,0.2,1.1,0.8,1.1c0.2,0,0.4,0,0.6-0.1v0.8c-0.3,0.1-0.6,0.1-0.9,0.1
	c-0.4,0-0.8-0.1-1.1-0.4c-0.3-0.4-0.5-1-0.4-1.5v-3.1h-0.9v-0.7h0.9v-1.4L23.7,98.2z"/>
<path class="st1" d="M26.2,104.4c0.4,0.3,0.9,0.4,1.4,0.4c0.8,0,1.1-0.4,1.1-0.8s-0.3-0.8-1-1c-1-0.4-1.5-0.9-1.5-1.6
	c0-1,0.9-1.7,1.8-1.7c0.1,0,0.1,0,0.2,0c0.5,0,1,0.1,1.4,0.3l-0.3,0.8c-0.3-0.2-0.8-0.3-1.2-0.3c-0.6,0-0.9,0.3-0.9,0.8
	s0.3,0.7,1.1,1c1,0.4,1.5,0.9,1.5,1.7s-0.8,1.7-2.1,1.7c-0.6,0-1.1-0.1-1.6-0.4L26.2,104.4z"/>
<path class="st1" d="M31.5,102.8c-0.1,1,0.6,1.9,1.6,2c0.1,0,0.2,0,0.3,0c0.5,0,1.1-0.1,1.6-0.3l0.2,0.7c-0.6,0.2-1.2,0.4-1.9,0.3
	c-1.4,0.1-2.7-1-2.8-2.5c0-0.1,0-0.3,0-0.4c0-1.7,1-3,2.6-3c1.3,0,2.4,1.1,2.4,2.4c0,0.1,0,0.2,0,0.2c0,0.2,0,0.3,0,0.5L31.5,102.8z
	 M34.5,102.1c0.1-0.8-0.4-1.5-1.2-1.7c-0.1,0-0.1,0-0.2,0c-0.9,0.1-1.6,0.8-1.6,1.7H34.5z"/>
<path class="st1" d="M36.8,101.6c0-0.7,0-1.2,0-1.8h0.9v1.1l0,0c0.2-0.7,0.8-1.2,1.6-1.2c0.1,0,0.2,0,0.3,0v1c-0.1,0-0.2,0-0.3,0
	c-0.7,0-1.3,0.6-1.3,1.3c0,0.2,0,0.3,0,0.5v3h-1L36.8,101.6z"/>
<path class="st1" d="M41.3,99.8l1.1,3.2c0.2,0.5,0.3,1,0.5,1.4l0,0c0.1-0.5,0.3-0.9,0.5-1.4l1.1-3.2h1.1l-2.2,5.7h-1l-2.1-5.7H41.3z
	"/>
<path class="st1" d="M47.7,98.2c0,0.4-0.3,0.6-0.6,0.6c-0.4,0-0.6-0.3-0.6-0.6c0-0.3,0.3-0.6,0.6-0.7c0,0,0,0,0,0
	C47.4,97.5,47.7,97.8,47.7,98.2C47.7,98.2,47.7,98.2,47.7,98.2z M46.6,105.4v-5.6h1v5.7L46.6,105.4z"/>
<path class="st1" d="M53.3,105.2c-0.5,0.2-1.1,0.3-1.6,0.3c-1.5,0.1-2.7-1.1-2.8-2.5c0-0.1,0-0.2,0-0.3c-0.1-1.6,1.2-2.9,2.7-3
	c0.1,0,0.2,0,0.3,0c0.5,0,1,0.1,1.4,0.3l-0.2,0.8c-0.4-0.2-0.8-0.3-1.2-0.3c-1.1,0-2,0.9-2,2c0,0,0,0.1,0,0.1
	c-0.1,1.1,0.7,2,1.7,2.1c0.1,0,0.2,0,0.3,0c0.4,0,0.9-0.1,1.3-0.3L53.3,105.2z"/>
<path class="st1" d="M55,102.8c-0.1,1,0.6,1.9,1.6,2c0.1,0,0.2,0,0.3,0c0.5,0,1.1-0.1,1.6-0.3l0.2,0.7c-0.6,0.2-1.2,0.4-1.9,0.3
	c-1.4,0.1-2.7-1-2.8-2.5c0-0.1,0-0.3,0-0.4c0-1.7,1-3,2.7-3c1.3,0,2.4,1.1,2.4,2.4c0,0.1,0,0.2,0,0.2c0,0.2,0,0.3,0,0.5L55,102.8z
	 M58,102.1c0.1-0.8-0.4-1.5-1.2-1.7c-0.1,0-0.1,0-0.2,0c-0.9,0.1-1.6,0.8-1.6,1.7H58z"/>
</svg>
